data/ALL0003/F0003CH1.CSV

Record Length,2.500000e+03,,  -0.000006200000,   0.00000,
Sample Interval,2.000000e-08,,  -0.000006180000,   0.00000,
Trigger Point,3.100000000000e+02,,  -0.000006160000,   0.00000,
,,,  -0.000006140000,   0.00000,
,,,  -0.000006120000,   0.00000,
,,,  -0.000006100000,   0.00000,
Source,CH1,,  -0.000006080000,-400.00000,
Vertical Units,V,,  -0.000006060000,   0.00000,
Vertical Scale,5.000000e+03,,  -0.000006040000,   0.00000,
Vertical Offset,0.000000e+00,,  -0.000006020000,   0.00000,
Horizontal Units,s,,  -0.000006000000,-200.00000,
Horizontal Scale,5.000000e-06,,  -0.000005980000,   0.00000,
Pt Fmt,Y,,  -0.000005960000, 200.00000,
Yzero,0.000000e+00,,  -0.000005940000,   0.00000,
Probe Atten,1.000000e+03,,  -0.000005920000,   0.00000,
Model Number,TDS2012C,,  -0.000005900000,-200.00000,
Serial Number,C023195,,  -0.000005880000,   0.00000,
Firmware Version,FV:v24.18,,  -0.000005860000,   0.00000,
,,,-00.000005840000,-200.00000,
,,,-00.000005820000,   0.00000,
,,,-00.000005800000,-200.00000,
,,,-00.000005780000,   0.00000,
,,,-00.000005760000,   0.00000,
,,,-00.000005740000,   0.00000,
,,,-00.000005720000,   0.00000,
,,,-00.000005700000,   0.00000,
,,,-00.000005680000,-200.00000,
,,,-00.000005660000,   0.00000,
,,,-00.000005640000,   0.00000,
,,,-00.000005620000,   0.00000,
,,,-00.000005600000,   0.00000,
,,,-00.000005580000, 200.00000,
,,,-00.000005560000,   0.00000,
,,,-00.000005540000,   0.00000,
,,,-00.000005520000,   0.00000,
,,,-00.000005500000,   0.00000,
,,,-00.000005480000,   0.00000,
,,,-00.000005460000,   0.00000,
,,,-00.000005440000, 200.00000,
,,,-00.000005420000,-200.00000,
,,,-00.000005400000,   0.00000,
,,,-00.000005380000,-200.00000,
,,,-00.000005360000,   0.00000,
,,,-00.000005340000,   0.00000,
,,,-00.000005320000,   0.00000,
,,,-00.000005300000,   0.00000,
,,,-00.000005280000, 200.00000,
,,,-00.000005260000,   0.00000,
,,,-00.000005240000,-200.00000,
,,,-00.000005220000,   0.00000,
,,,-00.000005200000,   0.00000,
,,,-00.000005180000,   0.00000,
,,,-00.000005160000,-200.00000,
,,,-00.000005140000, 200.00000,
,,,-00.000005120000,   0.00000,
,,,-00.000005100000,   0.00000,
,,,-00.000005080000,   0.00000,
,,,-00.000005060000, 200.00000,
,,,-00.000005040000,   0.00000,
,,,-00.000005020000,-200.00000,
,,,-00.000005000000, 200.00000,
,,,-00.000004980000,   0.00000,
,,,-00.000004960000,   0.00000,
,,,-00.000004940000,-200.00000,
,,,-00.000004920000,   0.00000,
,,,-00.000004900000,   0.00000,
,,,-00.000004880000,   0.00000,
,,,-00.000004860000,-200.00000,
,,,-00.000004840000,   0.00000,
,,,-00.000004820000,   0.00000,
,,,-00.000004800000,   0.00000,
,,,-00.000004780000, 200.00000,
,,,-00.000004760000,   0.00000,
,,,-00.000004740000, 200.00000,
,,,-00.000004720000,-200.00000,
,,,-00.000004700000,   0.00000,
,,,-00.000004680000,-200.00000,
,,,-00.000004660000,-200.00000,
,,,-00.000004640000,   0.00000,
,,,-00.000004620000,-200.00000,
,,,-00.000004600000,   0.00000,
,,,-00.000004580000,   0.00000,
,,,-00.000004560000,   0.00000,
,,,-00.000004540000,   0.00000,
,,,-00.000004520000, 200.00000,
,,,-00.000004500000,   0.00000,
,,,-00.000004480000,-200.00000,
,,,-00.000004460000,-200.00000,
,,,-00.000004440000,   0.00000,
,,,-00.000004420000,   0.00000,
,,,-00.000004400000,   0.00000,
,,,-00.000004380000,   0.00000,
,,,-00.000004360000,   0.00000,
,,,-00.000004340000,   0.00000,
,,,-00.000004320000,   0.00000,
,,,-00.000004300000,   0.00000,
,,,-00.000004280000,   0.00000,
,,,-00.000004260000,   0.00000,
,,,-00.000004240000,   0.00000,
,,,-00.000004220000, 200.00000,
,,,-00.000004200000,   0.00000,
,,,-00.000004180000,   0.00000,
,,,-00.000004160000,   0.00000,
,,,-00.000004140000,   0.00000,
,,,-00.000004120000, 200.00000,
,,,-00.000004100000,   0.00000,
,,,-00.000004080000,   0.00000,
,,,-00.000004060000,   0.00000,
,,,-00.000004040000,   0.00000,
,,,-00.000004020000,   0.00000,
,,,-00.000004000000,   0.00000,
,,,-00.000003980000,   0.00000,
,,,-00.000003960000,   0.00000,
,,,-00.000003940000,   0.00000,
,,,-00.000003920000,-200.00000,
,,,-00.000003900000,   0.00000,
,,,-00.000003880000, 200.00000,
,,,-00.000003860000,   0.00000,
,,,-00.000003840000,   0.00000,
,,,-00.000003820000,   0.00000,
,,,-00.000003800000,   0.00000,
,,,-00.000003780000,   0.00000,
,,,-00.000003760000,   0.00000,
,,,-00.000003740000, 200.00000,
,,,-00.000003720000,   0.00000,
,,,-00.000003700000, 200.00000,
,,,-00.000003680000, 200.00000,
,,,-00.000003660000,   0.00000,
,,,-00.000003640000,   0.00000,
,,,-00.000003620000,   0.00000,
,,,-00.000003600000,   0.00000,
,,,-00.000003580000,   0.00000,
,,,-00.000003560000,   0.00000,
,,,-00.000003540000,   0.00000,
,,,-00.000003520000,   0.00000,
,,,-00.000003500000,   0.00000,
,,,-00.000003480000,   0.00000,
,,,-00.000003460000,   0.00000,
,,,-00.000003440000,-200.00000,
,,,-00.000003420000,   0.00000,
,,,-00.000003400000,   0.00000,
,,,-00.000003380000, 200.00000,
,,,-00.000003360000,   0.00000,
,,,-00.000003340000,-200.00000,
,,,-00.000003320000,   0.00000,
,,,-00.000003300000, 200.00000,
,,,-00.000003280000,   0.00000,
,,,-00.000003260000,   0.00000,
,,,-00.000003240000,   0.00000,
,,,-00.000003220000,   0.00000,
,,,-00.000003200000,   0.00000,
,,,-00.000003180000, 200.00000,
,,,-00.000003160000,   0.00000,
,,,-00.000003140000,   0.00000,
,,,-00.000003120000,   0.00000,
,,,-00.000003100000,   0.00000,
,,,-00.000003080000,   0.00000,
,,,-00.000003060000,   0.00000,
,,,-00.000003040000,   0.00000,
,,,-00.000003020000,   0.00000,
,,,-00.000003000000,   0.00000,
,,,-00.000002980000,   0.00000,
,,,-00.000002960000,   0.00000,
,,,-00.000002940000,   0.00000,
,,,-00.000002920000,   0.00000,
,,,-00.000002900000, 200.00000,
,,,-00.000002880000,   0.00000,
,,,-00.000002860000,   0.00000,
,,,-00.000002840000,   0.00000,
,,,-00.000002820000,   0.00000,
,,,-00.000002800000,   0.00000,
,,,-00.000002780000, 200.00000,
,,,-00.000002760000, 200.00000,
,,,-00.000002740000,-200.00000,
,,,-00.000002720000, 200.00000,
,,,-00.000002700000,   0.00000,
,,,-00.000002680000,   0.00000,
,,,-00.000002660000, 200.00000,
,,,-00.000002640000,   0.00000,
,,,-00.000002620000,   0.00000,
,,,-00.000002600000, 400.00000,
,,,-00.000002580000,   0.00000,
,,,-00.000002560000,   0.00000,
,,,-00.000002540000,   0.00000,
,,,-00.000002520000, 200.00000,
,,,-00.000002500000, 200.00000,
,,,-00.000002480000,   0.00000,
,,,-00.000002460000,   0.00000,
,,,-00.000002440000, 200.00000,
,,,-00.000002420000, 400.00000,
,,,-00.000002400000, 200.00000,
,,,-00.000002380000,   0.00000,
,,,-00.000002360000,   0.00000,
,,,-00.000002340000, 200.00000,
,,,-00.000002320000,   0.00000,
,,,-00.000002300000,   0.00000,
,,,-00.000002280000,   0.00000,
,,,-00.000002260000, 200.00000,
,,,-00.000002240000, 200.00000,
,,,-00.000002220000,   0.00000,
,,,-00.000002200000,   0.00000,
,,,-00.000002180000,   0.00000,
,,,-00.000002160000,   0.00000,
,,,-00.000002140000, 400.00000,
,,,-00.000002120000,-200.00000,
,,,-00.000002100000, 200.00000,
,,,-00.000002080000, 200.00000,
,,,-00.000002060000,   0.00000,
,,,-00.000002040000,   0.00000,
,,,-00.000002020000,   0.00000,
,,,-00.000002000000, 200.00000,
,,,-00.000001980000,   0.00000,
,,,-00.000001960000, 200.00000,
,,,-00.000001940000,-200.00000,
,,,-00.000001920000, 200.00000,
,,,-00.000001900000, 200.00000,
,,,-00.000001880000, 200.00000,
,,,-00.000001860000, 200.00000,
,,,-00.000001840000,   0.00000,
,,,-00.000001820000, 200.00000,
,,,-00.000001800000,   0.00000,
,,,-00.000001780000, 200.00000,
,,,-00.000001760000,   0.00000,
,,,-00.000001740000,   0.00000,
,,,-00.000001720000, 200.00000,
,,,-00.000001700000, 200.00000,
,,,-00.000001680000,   0.00000,
,,,-00.000001660000, 200.00000,
,,,-00.000001640000, 200.00000,
,,,-00.000001620000,   0.00000,
,,,-00.000001600000, 200.00000,
,,,-00.000001580000,   0.00000,
,,,-00.000001560000,   0.00000,
,,,-00.000001540000,   0.00000,
,,,-00.000001520000, 200.00000,
,,,-00.000001500000, 200.00000,
,,,-00.000001480000, 200.00000,
,,,-00.000001460000, 400.00000,
,,,-00.000001440000, 200.00000,
,,,-00.000001420000, 200.00000,
,,,-00.000001400000, 200.00000,
,,,-00.000001380000, 200.00000,
,,,-00.000001360000, 200.00000,
,,,-00.000001340000, 600.00000,
,,,-00.000001320000, 400.00000,
,,,-00.000001300000, 400.00000,
,,,-00.000001280000, 400.00000,
,,,-00.000001260000, 400.00000,
,,,-00.000001240000, 200.00000,
,,,-00.000001220000, 600.00000,
,,,-00.000001200000, 600.00000,
,,,-00.000001180000, 600.00000,
,,,-00.000001160000, 400.00000,
,,,-00.000001140000, 600.00000,
,,,-00.000001120000, 600.00000,
,,,-00.000001100000, 600.00000,
,,,-00.000001080000, 600.00000,
,,,-00.000001060000, 600.00000,
,,,-00.000001040000, 600.00000,
,,,-00.000001020000, 800.00000,
,,,-00.000001000000, 800.00000,
,,,-00.000000980000, 800.00000,
,,,-00.000000960000,1000.00000,
,,,-00.000000940000,1000.00000,
,,,-00.000000920000,1200.00000,
,,,-00.000000900000,1200.00000,
,,,-00.000000880000,1200.00000,
,,,-00.000000860000,1400.00000,
,,,-00.000000840000,1600.00000,
,,,-00.000000820000,1400.00000,
,,,-00.000000800000,1600.00000,
,,,-00.000000780000,1800.00000,
,,,-00.000000760000,1600.00000,
,,,-00.000000740000,2000.00000,
,,,-00.000000720000,1800.00000,
,,,-00.000000700000,2200.00000,
,,,-00.000000680000,2400.00000,
,,,-00.000000660000,2600.00000,
,,,-00.000000640000,2800.00000,
,,,-00.000000620000,2800.00000,
,,,-00.000000600000,3000.00000,
,,,-00.000000580000,3000.00000,
,,,-00.000000560000,3400.00000,
,,,-00.000000540000,3400.00000,
,,,-00.000000520000,3400.00000,
,,,-00.000000500000,3600.00000,
,,,-00.000000480000,3800.00000,
,,,-00.000000460000,4200.00000,
,,,-00.000000440000,4200.00000,
,,,-00.000000420000,4400.00000,
,,,-00.000000400000,4600.00000,
,,,-00.000000380000,4800.00000,
,,,-00.000000360000,5000.00000,
,,,-00.000000340000,5000.00000,
,,,-00.000000320000,5400.00000,
,,,-00.000000300000,5400.00000,
,,,-00.000000280000,5600.00000,
,,,-00.000000260000,6000.00000,
,,,-00.000000240000,6000.00000,
,,,-00.000000220000,6200.00000,
,,,-00.000000200000,6400.00000,
,,,-00.000000180000,6800.00000,
,,,-00.000000160000,7000.00000,
,,,-00.000000140000,7000.00000,
,,,-00.000000120000,7400.00000,
,,,-00.000000100000,7200.00000,
,,,-00.000000080000,7600.00000,
,,,-00.000000060000,7600.00000,
,,,-00.000000040000,7800.00000,
,,,-00.000000020000,8000.00000,
,,,-00.000000000000,8200.00000,
,,,00.000000020000,8200.00000,
,,,00.000000040000,8000.00000,
,,,00.000000060000,8800.00000,
,,,00.000000080000,8600.00000,
,,,00.000000100000,8800.00000,
,,,00.000000120000,8800.00000,
,,,00.000000140000,8800.00000,
,,,00.000000160000,9400.00000,
,,,00.000000180000,9400.00000,
,,,00.000000200000,9400.00000,
,,,00.000000220000,9400.00000,
,,,00.000000240000,9600.00000,
,,,00.000000260000,9600.00000,
,,,00.000000280000,9800.00000,
,,,00.000000300000,10000.00000,
,,,00.000000320000,9800.00000,
,,,00.000000340000,10200.00000,
,,,00.000000360000,10200.00000,
,,,00.000000380000,10200.00000,
,,,00.000000400000,10200.00000,
,,,00.000000420000,10400.00000,
,,,00.000000440000,10600.00000,
,,,00.000000460000,10800.00000,
,,,00.000000480000,10600.00000,
,,,00.000000500000,10600.00000,
,,,00.000000520000,10800.00000,
,,,00.000000540000,11200.00000,
,,,00.000000560000,11000.00000,
,,,00.000000580000,11000.00000,
,,,00.000000600000,11200.00000,
,,,00.000000620000,11000.00000,
,,,00.000000640000,11200.00000,
,,,00.000000660000,11200.00000,
,,,00.000000680000,11200.00000,
,,,00.000000700000,11000.00000,
,,,00.000000720000,11600.00000,
,,,00.000000740000,11200.00000,
,,,00.000000760000,11200.00000,
,,,00.000000780000,11400.00000,
,,,00.000000800000,11400.00000,
,,,00.000000820000,11200.00000,
,,,00.000000840000,11200.00000,
,,,00.000000860000,11200.00000,
,,,00.000000880000,11200.00000,
,,,00.000000900000,11200.00000,
,,,00.000000920000,11200.00000,
,,,00.000000940000,11200.00000,
,,,00.000000960000,11200.00000,
,,,00.000000980000,11200.00000,
,,,00.000001000000,11200.00000,
,,,00.000001020000,11000.00000,
,,,00.000001040000,11200.00000,
,,,00.000001060000,11200.00000,
,,,00.000001080000,11000.00000,
,,,00.000001100000,11000.00000,
,,,00.000001120000,10600.00000,
,,,00.000001140000,11000.00000,
,,,00.000001160000,11200.00000,
,,,00.000001180000,11000.00000,
,,,00.000001200000,11000.00000,
,,,00.000001220000,10800.00000,
,,,00.000001240000,11000.00000,
,,,00.000001260000,10800.00000,
,,,00.000001280000,10800.00000,
,,,00.000001300000,10800.00000,
,,,00.000001320000,10800.00000,
,,,00.000001340000,10600.00000,
,,,00.000001360000,10800.00000,
,,,00.000001380000,10800.00000,
,,,00.000001400000,10800.00000,
,,,00.000001420000,10800.00000,
,,,00.000001440000,11000.00000,
,,,00.000001460000,10600.00000,
,,,00.000001480000,10800.00000,
,,,00.000001500000,10600.00000,
,,,00.000001520000,10800.00000,
,,,00.000001540000,10600.00000,
,,,00.000001560000,10600.00000,
,,,00.000001580000,10600.00000,
,,,00.000001600000,10800.00000,
,,,00.000001620000,10600.00000,
,,,00.000001640000,10600.00000,
,,,00.000001660000,10800.00000,
,,,00.000001680000,10800.00000,
,,,00.000001700000,10600.00000,
,,,00.000001720000,11000.00000,
,,,00.000001740000,10600.00000,
,,,00.000001760000,10800.00000,
,,,00.000001780000,10600.00000,
,,,00.000001800000,10800.00000,
,,,00.000001820000,10800.00000,
,,,00.000001840000,10600.00000,
,,,00.000001860000,10600.00000,
,,,00.000001880000,10600.00000,
,,,00.000001900000,10800.00000,
,,,00.000001920000,10600.00000,
,,,00.000001940000,10600.00000,
,,,00.000001960000,10800.00000,
,,,00.000001980000,10800.00000,
,,,00.000002000000,10600.00000,
,,,00.000002020000,10400.00000,
,,,00.000002040000,10800.00000,
,,,00.000002060000,10800.00000,
,,,00.000002080000,10600.00000,
,,,00.000002100000,10800.00000,
,,,00.000002120000,10800.00000,
,,,00.000002140000,11200.00000,
,,,00.000002160000,10800.00000,
,,,00.000002180000,10800.00000,
,,,00.000002200000,11000.00000,
,,,00.000002220000,10600.00000,
,,,00.000002240000,11000.00000,
,,,00.000002260000,11000.00000,
,,,00.000002280000,11000.00000,
,,,00.000002300000,10800.00000,
,,,00.000002320000,11000.00000,
,,,00.000002340000,11000.00000,
,,,00.000002360000,10800.00000,
,,,00.000002380000,11000.00000,
,,,00.000002400000,10800.00000,
,,,00.000002420000,11000.00000,
,,,00.000002440000,11000.00000,
,,,00.000002460000,11000.00000,
,,,00.000002480000,11000.00000,
,,,00.000002500000,10800.00000,
,,,00.000002520000,11000.00000,
,,,00.000002540000,11000.00000,
,,,00.000002560000,10800.00000,
,,,00.000002580000,11000.00000,
,,,00.000002600000,10800.00000,
,,,00.000002620000,11200.00000,
,,,00.000002640000,11000.00000,
,,,00.000002660000,11200.00000,
,,,00.000002680000,10800.00000,
,,,00.000002700000,11400.00000,
,,,00.000002720000,10800.00000,
,,,00.000002740000,11200.00000,
,,,00.000002760000,11200.00000,
,,,00.000002780000,11200.00000,
,,,00.000002800000,11200.00000,
,,,00.000002820000,11200.00000,
,,,00.000002840000,11200.00000,
,,,00.000002860000,11000.00000,
,,,00.000002880000,11200.00000,
,,,00.000002900000,11200.00000,
,,,00.000002920000,11000.00000,
,,,00.000002940000,11200.00000,
,,,00.000002960000,11000.00000,
,,,00.000002980000,11200.00000,
,,,00.000003000000,11200.00000,
,,,00.000003020000,11200.00000,
,,,00.000003040000,11400.00000,
,,,00.000003060000,11200.00000,
,,,00.000003080000,11200.00000,
,,,00.000003100000,11000.00000,
,,,00.000003120000,11200.00000,
,,,00.000003140000,11200.00000,
,,,00.000003160000,11200.00000,
,,,00.000003180000,11400.00000,
,,,00.000003200000,11200.00000,
,,,00.000003220000,11600.00000,
,,,00.000003240000,11200.00000,
,,,00.000003260000,11400.00000,
,,,00.000003280000,11400.00000,
,,,00.000003300000,11200.00000,
,,,00.000003320000,11400.00000,
,,,00.000003340000,11400.00000,
,,,00.000003360000,11400.00000,
,,,00.000003380000,11200.00000,
,,,00.000003400000,11200.00000,
,,,00.000003420000,11400.00000,
,,,00.000003440000,11400.00000,
,,,00.000003460000,11400.00000,
,,,00.000003480000,11200.00000,
,,,00.000003500000,11400.00000,
,,,00.000003520000,11200.00000,
,,,00.000003540000,11400.00000,
,,,00.000003560000,11200.00000,
,,,00.000003580000,11400.00000,
,,,00.000003600000,11600.00000,
,,,00.000003620000,11400.00000,
,,,00.000003640000,11200.00000,
,,,00.000003660000,11400.00000,
,,,00.000003680000,11400.00000,
,,,00.000003700000,11600.00000,
,,,00.000003720000,11400.00000,
,,,00.000003740000,11400.00000,
,,,00.000003760000,11400.00000,
,,,00.000003780000,11400.00000,
,,,00.000003800000,11400.00000,
,,,00.000003820000,11200.00000,
,,,00.000003840000,11400.00000,
,,,00.000003860000,11400.00000,
,,,00.000003880000,11600.00000,
,,,00.000003900000,11400.00000,
,,,00.000003920000,11200.00000,
,,,00.000003940000,11400.00000,
,,,00.000003960000,11400.00000,
,,,00.000003980000,11400.00000,
,,,00.000004000000,11200.00000,
,,,00.000004020000,11400.00000,
,,,00.000004040000,11200.00000,
,,,00.000004060000,11400.00000,
,,,00.000004080000,11400.00000,
,,,00.000004100000,11200.00000,
,,,00.000004120000,11400.00000,
,,,00.000004140000,11400.00000,
,,,00.000004160000,11400.00000,
,,,00.000004180000,11200.00000,
,,,00.000004200000,11200.00000,
,,,00.000004220000,11600.00000,
,,,00.000004240000,11600.00000,
,,,00.000004260000,11600.00000,
,,,00.000004280000,11200.00000,
,,,00.000004300000,11200.00000,
,,,00.000004320000,11600.00000,
,,,00.000004340000,11200.00000,
,,,00.000004360000,11400.00000,
,,,00.000004380000,11400.00000,
,,,00.000004400000,11400.00000,
,,,00.000004420000,11400.00000,
,,,00.000004440000,11400.00000,
,,,00.000004460000,11400.00000,
,,,00.000004480000,11400.00000,
,,,00.000004500000,11400.00000,
,,,00.000004520000,11000.00000,
,,,00.000004540000,11600.00000,
,,,00.000004560000,11400.00000,
,,,00.000004580000,11400.00000,
,,,00.000004600000,11400.00000,
,,,00.000004620000,11200.00000,
,,,00.000004640000,11400.00000,
,,,00.000004660000,11200.00000,
,,,00.000004680000,11600.00000,
,,,00.000004700000,11200.00000,
,,,00.000004720000,11400.00000,
,,,00.000004740000,11600.00000,
,,,00.000004760000,11400.00000,
,,,00.000004780000,11200.00000,
,,,00.000004800000,11400.00000,
,,,00.000004820000,11200.00000,
,,,00.000004840000,11400.00000,
,,,00.000004860000,11200.00000,
,,,00.000004880000,11200.00000,
,,,00.000004900000,11200.00000,
,,,00.000004920000,11400.00000,
,,,00.000004940000,11400.00000,
,,,00.000004960000,11200.00000,
,,,00.000004980000,11400.00000,
,,,00.000005000000,11400.00000,
,,,00.000005020000,11600.00000,
,,,00.000005040000,11200.00000,
,,,00.000005060000,11200.00000,
,,,00.000005080000,11200.00000,
,,,00.000005100000,11400.00000,
,,,00.000005120000,11400.00000,
,,,00.000005140000,11400.00000,
,,,00.000005160000,11200.00000,
,,,00.000005180000,11000.00000,
,,,00.000005200000,11200.00000,
,,,00.000005220000,11000.00000,
,,,00.000005240000,11200.00000,
,,,00.000005260000,11200.00000,
,,,00.000005280000,11200.00000,
,,,00.000005300000,11200.00000,
,,,00.000005320000,11000.00000,
,,,00.000005340000,11200.00000,
,,,00.000005360000,11200.00000,
,,,00.000005380000,11200.00000,
,,,00.000005400000,11400.00000,
,,,00.000005420000,11000.00000,
,,,00.000005440000,11200.00000,
,,,00.000005460000,11200.00000,
,,,00.000005480000,11400.00000,
,,,00.000005500000,11200.00000,
,,,00.000005520000,11000.00000,
,,,00.000005540000,11000.00000,
,,,00.000005560000,11200.00000,
,,,00.000005580000,11200.00000,
,,,00.000005600000,10800.00000,
,,,00.000005620000,11200.00000,
,,,00.000005640000,11200.00000,
,,,00.000005660000,11200.00000,
,,,00.000005680000,11400.00000,
,,,00.000005700000,10800.00000,
,,,00.000005720000,11200.00000,
,,,00.000005740000,11200.00000,
,,,00.000005760000,11000.00000,
,,,00.000005780000,11400.00000,
,,,00.000005800000,10800.00000,
,,,00.000005820000,11200.00000,
,,,00.000005840000,11200.00000,
,,,00.000005860000,11200.00000,
,,,00.000005880000,11000.00000,
,,,00.000005900000,11000.00000,
,,,00.000005920000,11000.00000,
,,,00.000005940000,11000.00000,
,,,00.000005960000,11200.00000,
,,,00.000005980000,10800.00000,
,,,00.000006000000,11200.00000,
,,,00.000006020000,11000.00000,
,,,00.000006040000,10800.00000,
,,,00.000006060000,11000.00000,
,,,00.000006080000,11000.00000,
